%YAML 1.1
%TAG !u! tag:unity3d.com,2011:
--- !u!1 &8701975006403999759
GameObject:
  m_ObjectHideFlags: 0
  m_CorrespondingSourceObject: {fileID: 0}
  m_PrefabInstance: {fileID: 0}
  m_PrefabAsset: {fileID: 0}
  serializedVersion: 6
  m_Component:
  - component: {fileID: 3134488551049433458}
  m_Layer: 0
  m_Name: mod_piece_4_270
  m_TagString: Untagged
  m_Icon: {fileID: 0}
  m_NavMeshLayer: 0
  m_StaticEditorFlags: 0
  m_IsActive: 1
--- !u!4 &3134488551049433458
Transform:
  m_ObjectHideFlags: 0
  m_CorrespondingSourceObject: {fileID: 0}
  m_PrefabInstance: {fileID: 0}
  m_PrefabAsset: {fileID: 0}
  m_GameObject: {fileID: 8701975006403999759}
  m_LocalRotation: {x: 0, y: 0, z: 0, w: 1}
  m_LocalPosition: {x: 0, y: 0, z: 0}
  m_LocalScale: {x: 1, y: 1, z: 1}
  m_Children:
  - {fileID: 3556411410114773789}
  m_Father: {fileID: 0}
  m_RootOrder: 0
  m_LocalEulerAnglesHint: {x: 0, y: 0, z: 0}
--- !u!1001 &3556411410669230350
PrefabInstance:
  m_ObjectHideFlags: 0
  serializedVersion: 2
  m_Modification:
    m_TransformParent: {fileID: 3134488551049433458}
    m_Modifications:
    - target: {fileID: 1864129040, guid: b98bfbaccd179614394c1694ed168cb1, type: 3}
      propertyPath: m_Name
      value: modular_peice_4_270
      objectReference: {fileID: 0}
    - target: {fileID: 1864129043, guid: b98bfbaccd179614394c1694ed168cb1, type: 3}
      propertyPath: m_LocalPosition.x
      value: 8
      objectReference: {fileID: 0}
    - target: {fileID: 1864129043, guid: b98bfbaccd179614394c1694ed168cb1, type: 3}
      propertyPath: m_LocalPosition.y
      value: 0
      objectReference: {fileID: 0}
    - target: {fileID: 1864129043, guid: b98bfbaccd179614394c1694ed168cb1, type: 3}
      propertyPath: m_LocalPosition.z
      value: -8
      objectReference: {fileID: 0}
    - target: {fileID: 1864129043, guid: b98bfbaccd179614394c1694ed168cb1, type: 3}
      propertyPath: m_LocalRotation.x
      value: -0
      objectReference: {fileID: 0}
    - target: {fileID: 1864129043, guid: b98bfbaccd179614394c1694ed168cb1, type: 3}
      propertyPath: m_LocalRotation.y
      value: -0
      objectReference: {fileID: 0}
    - target: {fileID: 1864129043, guid: b98bfbaccd179614394c1694ed168cb1, type: 3}
      propertyPath: m_LocalRotation.z
      value: -0
      objectReference: {fileID: 0}
    - target: {fileID: 1864129043, guid: b98bfbaccd179614394c1694ed168cb1, type: 3}
      propertyPath: m_LocalRotation.w
      value: 1
      objectReference: {fileID: 0}
    - target: {fileID: 1864129043, guid: b98bfbaccd179614394c1694ed168cb1, type: 3}
      propertyPath: m_RootOrder
      value: 0
      objectReference: {fileID: 0}
    - target: {fileID: 1864129043, guid: b98bfbaccd179614394c1694ed168cb1, type: 3}
      propertyPath: m_LocalEulerAnglesHint.x
      value: 0
      objectReference: {fileID: 0}
    - target: {fileID: 1864129043, guid: b98bfbaccd179614394c1694ed168cb1, type: 3}
      propertyPath: m_LocalEulerAnglesHint.y
      value: 0
      objectReference: {fileID: 0}
    - target: {fileID: 1864129043, guid: b98bfbaccd179614394c1694ed168cb1, type: 3}
      propertyPath: m_LocalEulerAnglesHint.z
      value: 0
      objectReference: {fileID: 0}
    m_RemovedComponents: []
  m_SourcePrefab: {fileID: 100100000, guid: b98bfbaccd179614394c1694ed168cb1, type: 3}
--- !u!4 &3556411410114773789 stripped
Transform:
  m_CorrespondingSourceObject: {fileID: 1864129043, guid: b98bfbaccd179614394c1694ed168cb1,
    type: 3}
  m_PrefabInstance: {fileID: 3556411410669230350}
  m_PrefabAsset: {fileID: 0}
