%YAML 1.1
%TAG !u! tag:unity3d.com,2011:
--- !u!1 &8415483438478650
GameObject:
  m_ObjectHideFlags: 0
  m_CorrespondingSourceObject: {fileID: 0}
  m_PrefabInstance: {fileID: 0}
  m_PrefabAsset: {fileID: 0}
  serializedVersion: 6
  m_Component:
  - component: {fileID: 5263545409168977643}
  m_Layer: 0
  m_Name: mod_piece_1
  m_TagString: Untagged
  m_Icon: {fileID: 0}
  m_NavMeshLayer: 0
  m_StaticEditorFlags: 0
  m_IsActive: 1
--- !u!4 &5263545409168977643
Transform:
  m_ObjectHideFlags: 0
  m_CorrespondingSourceObject: {fileID: 0}
  m_PrefabInstance: {fileID: 0}
  m_PrefabAsset: {fileID: 0}
  m_GameObject: {fileID: 8415483438478650}
  m_LocalRotation: {x: 0, y: 0, z: 0, w: 1}
  m_LocalPosition: {x: 8, y: 0, z: -8}
  m_LocalScale: {x: 1, y: 1, z: 1}
  m_Children:
  - {fileID: 7523727391722188275}
  m_Father: {fileID: 0}
  m_RootOrder: 0
  m_LocalEulerAnglesHint: {x: 0, y: 0, z: 0}
--- !u!1001 &7523727392543002859
PrefabInstance:
  m_ObjectHideFlags: 0
  serializedVersion: 2
  m_Modification:
    m_TransformParent: {fileID: 5263545409168977643}
    m_Modifications:
    - target: {fileID: 823983381, guid: 5a6f14fedfbb6c14ba1053473b8ea942, type: 3}
      propertyPath: m_Name
      value: modular_peice_1
      objectReference: {fileID: 0}
    - target: {fileID: 823983384, guid: 5a6f14fedfbb6c14ba1053473b8ea942, type: 3}
      propertyPath: m_LocalPosition.x
      value: 8
      objectReference: {fileID: 0}
    - target: {fileID: 823983384, guid: 5a6f14fedfbb6c14ba1053473b8ea942, type: 3}
      propertyPath: m_LocalPosition.y
      value: 0
      objectReference: {fileID: 0}
    - target: {fileID: 823983384, guid: 5a6f14fedfbb6c14ba1053473b8ea942, type: 3}
      propertyPath: m_LocalPosition.z
      value: -8
      objectReference: {fileID: 0}
    - target: {fileID: 823983384, guid: 5a6f14fedfbb6c14ba1053473b8ea942, type: 3}
      propertyPath: m_LocalRotation.x
      value: -0
      objectReference: {fileID: 0}
    - target: {fileID: 823983384, guid: 5a6f14fedfbb6c14ba1053473b8ea942, type: 3}
      propertyPath: m_LocalRotation.y
      value: 0.7071068
      objectReference: {fileID: 0}
    - target: {fileID: 823983384, guid: 5a6f14fedfbb6c14ba1053473b8ea942, type: 3}
      propertyPath: m_LocalRotation.z
      value: -0
      objectReference: {fileID: 0}
    - target: {fileID: 823983384, guid: 5a6f14fedfbb6c14ba1053473b8ea942, type: 3}
      propertyPath: m_LocalRotation.w
      value: 0.7071068
      objectReference: {fileID: 0}
    - target: {fileID: 823983384, guid: 5a6f14fedfbb6c14ba1053473b8ea942, type: 3}
      propertyPath: m_RootOrder
      value: 0
      objectReference: {fileID: 0}
    - target: {fileID: 823983384, guid: 5a6f14fedfbb6c14ba1053473b8ea942, type: 3}
      propertyPath: m_LocalEulerAnglesHint.x
      value: 0
      objectReference: {fileID: 0}
    - target: {fileID: 823983384, guid: 5a6f14fedfbb6c14ba1053473b8ea942, type: 3}
      propertyPath: m_LocalEulerAnglesHint.y
      value: 90
      objectReference: {fileID: 0}
    - target: {fileID: 823983384, guid: 5a6f14fedfbb6c14ba1053473b8ea942, type: 3}
      propertyPath: m_LocalEulerAnglesHint.z
      value: 0
      objectReference: {fileID: 0}
    - target: {fileID: 823983384, guid: 5a6f14fedfbb6c14ba1053473b8ea942, type: 3}
      propertyPath: m_LocalScale.x
      value: 1
      objectReference: {fileID: 0}
    - target: {fileID: 823983384, guid: 5a6f14fedfbb6c14ba1053473b8ea942, type: 3}
      propertyPath: m_LocalScale.z
      value: 1
      objectReference: {fileID: 0}
    m_RemovedComponents: []
  m_SourcePrefab: {fileID: 100100000, guid: 5a6f14fedfbb6c14ba1053473b8ea942, type: 3}
--- !u!4 &7523727391722188275 stripped
Transform:
  m_CorrespondingSourceObject: {fileID: 823983384, guid: 5a6f14fedfbb6c14ba1053473b8ea942,
    type: 3}
  m_PrefabInstance: {fileID: 7523727392543002859}
  m_PrefabAsset: {fileID: 0}
