%YAML 1.1
%TAG !u! tag:unity3d.com,2011:
--- !u!1001 &8827488717245291985
PrefabInstance:
  m_ObjectHideFlags: 0
  serializedVersion: 2
  m_Modification:
    m_TransformParent: {fileID: 0}
    m_Modifications:
    - target: {fileID: 3944786815542675516, guid: c5facb9e4ef83e845a57b790aa8828fb,
        type: 3}
      propertyPath: m_Name
      value: CooldownProjectileRogue
      objectReference: {fileID: 0}
    - target: {fileID: 481480754318317732, guid: c5facb9e4ef83e845a57b790aa8828fb,
        type: 3}
      propertyPath: m_LocalPosition.x
      value: 0
      objectReference: {fileID: 0}
    - target: {fileID: 481480754318317732, guid: c5facb9e4ef83e845a57b790aa8828fb,
        type: 3}
      propertyPath: m_LocalPosition.y
      value: 0
      objectReference: {fileID: 0}
    - target: {fileID: 481480754318317732, guid: c5facb9e4ef83e845a57b790aa8828fb,
        type: 3}
      propertyPath: m_LocalPosition.z
      value: 0
      objectReference: {fileID: 0}
    - target: {fileID: 481480754318317732, guid: c5facb9e4ef83e845a57b790aa8828fb,
        type: 3}
      propertyPath: m_LocalRotation.x
      value: 0
      objectReference: {fileID: 0}
    - target: {fileID: 481480754318317732, guid: c5facb9e4ef83e845a57b790aa8828fb,
        type: 3}
      propertyPath: m_LocalRotation.y
      value: 0
      objectReference: {fileID: 0}
    - target: {fileID: 481480754318317732, guid: c5facb9e4ef83e845a57b790aa8828fb,
        type: 3}
      propertyPath: m_LocalRotation.z
      value: 0
      objectReference: {fileID: 0}
    - target: {fileID: 481480754318317732, guid: c5facb9e4ef83e845a57b790aa8828fb,
        type: 3}
      propertyPath: m_LocalRotation.w
      value: 1
      objectReference: {fileID: 0}
    - target: {fileID: 481480754318317732, guid: c5facb9e4ef83e845a57b790aa8828fb,
        type: 3}
      propertyPath: m_RootOrder
      value: 0
      objectReference: {fileID: 0}
    - target: {fileID: 481480754318317732, guid: c5facb9e4ef83e845a57b790aa8828fb,
        type: 3}
      propertyPath: m_LocalEulerAnglesHint.x
      value: 0
      objectReference: {fileID: 0}
    - target: {fileID: 481480754318317732, guid: c5facb9e4ef83e845a57b790aa8828fb,
        type: 3}
      propertyPath: m_LocalEulerAnglesHint.y
      value: 0
      objectReference: {fileID: 0}
    - target: {fileID: 481480754318317732, guid: c5facb9e4ef83e845a57b790aa8828fb,
        type: 3}
      propertyPath: m_LocalEulerAnglesHint.z
      value: 0
      objectReference: {fileID: 0}
    - target: {fileID: 1144443085690488844, guid: c5facb9e4ef83e845a57b790aa8828fb,
        type: 3}
      propertyPath: m_Materials.Array.data[0]
      value: 
      objectReference: {fileID: 2100000, guid: f012ddc9a86eb4441b0f56421a034881, type: 2}
    m_RemovedComponents: []
  m_SourcePrefab: {fileID: 100100000, guid: c5facb9e4ef83e845a57b790aa8828fb, type: 3}
