%YAML 1.1
%TAG !u! tag:unity3d.com,2011:
--- !u!114 &11400000
MonoBehaviour:
  m_ObjectHideFlags: 0
  m_CorrespondingSourceObject: {fileID: 0}
  m_PrefabInstance: {fileID: 0}
  m_PrefabAsset: {fileID: 0}
  m_GameObject: {fileID: 0}
  m_Enabled: 1
  m_EditorHideFlags: 0
  m_Script: {fileID: 11500000, guid: 617981e47c7a66f4cb99adf348a8bd2f, type: 3}
  m_Name: 7B89A83C-D0D7-4216-843D-516F9650939C
  m_EditorClassIdentifier: 
  objectName: Main
  id: 3161908922
  guid: 7B89A83C-D0D7-4216-843D-516F9650939C
