%YAML 1.1
%TAG !u! tag:unity3d.com,2011:
--- !u!21 &2100000
Material:
  serializedVersion: 6
  m_ObjectHideFlags: 0
  m_CorrespondingSourceObject: {fileID: 0}
  m_PrefabInstance: {fileID: 0}
  m_PrefabAsset: {fileID: 0}
  m_Name: mat_explosion_04
  m_Shader: {fileID: 4800000, guid: 788382024b16d774ab7e496d49cff3e0, type: 3}
  m_ShaderKeywords: _COLORLERP_ON
  m_LightmapFlags: 4
  m_EnableInstancingVariants: 0
  m_DoubleSidedGI: 0
  m_CustomRenderQueue: -1
  stringTagMap: {}
  disabledShaderPasses: []
  m_SavedProperties:
    serializedVersion: 3
    m_TexEnvs:
    - _Alpha:
        m_Texture: {fileID: 2800000, guid: 6898ad7ec70f26f40a8a79013ea181d4, type: 3}
        m_Scale: {x: 1, y: 1}
        m_Offset: {x: 0, y: 0}
    - _BumpMap:
        m_Texture: {fileID: 0}
        m_Scale: {x: 1, y: 1}
        m_Offset: {x: 0, y: 0}
    - _DetailAlbedoMap:
        m_Texture: {fileID: 0}
        m_Scale: {x: 1, y: 1}
        m_Offset: {x: 0, y: 0}
    - _DetailMask:
        m_Texture: {fileID: 0}
        m_Scale: {x: 1, y: 1}
        m_Offset: {x: 0, y: 0}
    - _DetailNormalMap:
        m_Texture: {fileID: 0}
        m_Scale: {x: 1, y: 1}
        m_Offset: {x: 0, y: 0}
    - _Distortion:
        m_Texture: {fileID: 2800000, guid: cb59be4c5afb558478e482ed2d09f65f, type: 3}
        m_Scale: {x: 1, y: 1}
        m_Offset: {x: 0, y: 0}
    - _EmissionMap:
        m_Texture: {fileID: 0}
        m_Scale: {x: 1, y: 1}
        m_Offset: {x: 0, y: 0}
    - _MainTex:
        m_Texture: {fileID: 0}
        m_Scale: {x: 1, y: 1}
        m_Offset: {x: 0, y: 0}
    - _Mask1:
        m_Texture: {fileID: 2800000, guid: 641718af9feeb8742a3b5e082673827f, type: 3}
        m_Scale: {x: 1, y: 1}
        m_Offset: {x: 0, y: 0}
    - _Mask2:
        m_Texture: {fileID: 2800000, guid: cb59be4c5afb558478e482ed2d09f65f, type: 3}
        m_Scale: {x: 1, y: 1}
        m_Offset: {x: 0, y: 0}
    - _MetallicGlossMap:
        m_Texture: {fileID: 0}
        m_Scale: {x: 1, y: 1}
        m_Offset: {x: 0, y: 0}
    - _OcclusionMap:
        m_Texture: {fileID: 0}
        m_Scale: {x: 1, y: 1}
        m_Offset: {x: 0, y: 0}
    - _ParallaxMap:
        m_Texture: {fileID: 0}
        m_Scale: {x: 1, y: 1}
        m_Offset: {x: 0, y: 0}
    - _texcoord:
        m_Texture: {fileID: 0}
        m_Scale: {x: 1, y: 1}
        m_Offset: {x: 0, y: 0}
    m_Floats:
    - _AlphaBoost: 4
    - _AlphaDiffuseAttenuation: 0
    - _BumpScale: 1
    - _ColorBoost: 45
    - _ColorLerp: 1
    - _Cutoff: 0.5
    - _DetailNormalMapScale: 1
    - _DistortionPower: 0.05
    - _DistortionUOffset: 0
    - _DistortionUSpeed: 1
    - _DistortionUTiling: 0.1
    - _DistortionVOffset: 0
    - _DistortionVSpeed: 0.05
    - _DistortionVTiling: 1
    - _DstBlend: 0
    - _FresnelPower: 1
    - _GlossMapScale: 1
    - _Glossiness: 0.5
    - _GlossyReflections: 1
    - _Mask1AlphaAttenuation: 0
    - _Mask1DiffuseAttenuation: 0
    - _Mask1UOffset: -0.3
    - _Mask1USpeed: 1
    - _Mask1UTiling: 0.2
    - _Mask1VOffset: 1
    - _Mask1VSpeed: 0.1
    - _Mask1VTiling: 1
    - _Mask2AlphaAttenuation: 0.1
    - _Mask2DiffuseAttenuation: 0
    - _Mask2UOffset: 0
    - _Mask2USpeed: 1
    - _Mask2UTiling: 0.3
    - _Mask2VOffset: 0
    - _Mask2VSpeed: 0.2
    - _Mask2VTiling: 1
    - _MasterSpeed: 3
    - _Metallic: 0
    - _Mode: 0
    - _OcclusionStrength: 1
    - _Parallax: 0.02
    - _SmoothnessTextureChannel: 0
    - _SpecularHighlights: 1
    - _SrcBlend: 1
    - _UVSec: 0
    - _ZWrite: 1
    - __dirty: 1
    m_Colors:
    - _Color: {r: 1, g: 1, b: 1, a: 1}
    - _EmissionColor: {r: 0, g: 0, b: 0, a: 1}
    - _SecondaryColor: {r: 0.4811321, g: 0, b: 0, a: 1}
