%YAML 1.1
%TAG !u! tag:unity3d.com,2011:
--- !u!21 &2100000
Material:
  serializedVersion: 6
  m_ObjectHideFlags: 0
  m_CorrespondingSourceObject: {fileID: 0}
  m_PrefabInstance: {fileID: 0}
  m_PrefabAsset: {fileID: 0}
  m_Name: mat_charge_03
  m_Shader: {fileID: 4800000, guid: 788382024b16d774ab7e496d49cff3e0, type: 3}
  m_ShaderKeywords: _COLORLERP_ON
  m_LightmapFlags: 4
  m_EnableInstancingVariants: 0
  m_DoubleSidedGI: 0
  m_CustomRenderQueue: -1
  stringTagMap: {}
  disabledShaderPasses: []
  m_SavedProperties:
    serializedVersion: 3
    m_TexEnvs:
    - _Alpha:
        m_Texture: {fileID: 2800000, guid: 79e2d772bf0272745b6465c97ebc0fb2, type: 3}
        m_Scale: {x: 1, y: 1}
        m_Offset: {x: 0, y: 0}
    - _BumpMap:
        m_Texture: {fileID: 0}
        m_Scale: {x: 1, y: 1}
        m_Offset: {x: 0, y: 0}
    - _DetailAlbedoMap:
        m_Texture: {fileID: 0}
        m_Scale: {x: 1, y: 1}
        m_Offset: {x: 0, y: 0}
    - _DetailMask:
        m_Texture: {fileID: 0}
        m_Scale: {x: 1, y: 1}
        m_Offset: {x: 0, y: 0}
    - _DetailNormalMap:
        m_Texture: {fileID: 0}
        m_Scale: {x: 1, y: 1}
        m_Offset: {x: 0, y: 0}
    - _Distortion:
        m_Texture: {fileID: 2800000, guid: e8549751648d623478ff4118d4551ac8, type: 3}
        m_Scale: {x: 1, y: 1}
        m_Offset: {x: 0, y: 0}
    - _EmissionMap:
        m_Texture: {fileID: 0}
        m_Scale: {x: 1, y: 1}
        m_Offset: {x: 0, y: 0}
    - _MainTex:
        m_Texture: {fileID: 0}
        m_Scale: {x: 1, y: 1}
        m_Offset: {x: 0, y: 0}
    - _Mask1:
        m_Texture: {fileID: 2800000, guid: f506d3498fbd7714d896945d708cbec8, type: 3}
        m_Scale: {x: 1, y: 1}
        m_Offset: {x: 0, y: 0}
    - _Mask2:
        m_Texture: {fileID: 2800000, guid: 514c94c0bddda8646bc43bf60f4193a2, type: 3}
        m_Scale: {x: 1, y: 1}
        m_Offset: {x: 0, y: 0}
    - _MetallicGlossMap:
        m_Texture: {fileID: 0}
        m_Scale: {x: 1, y: 1}
        m_Offset: {x: 0, y: 0}
    - _OcclusionMap:
        m_Texture: {fileID: 0}
        m_Scale: {x: 1, y: 1}
        m_Offset: {x: 0, y: 0}
    - _ParallaxMap:
        m_Texture: {fileID: 0}
        m_Scale: {x: 1, y: 1}
        m_Offset: {x: 0, y: 0}
    - _texcoord:
        m_Texture: {fileID: 0}
        m_Scale: {x: 1, y: 1}
        m_Offset: {x: 0, y: 0}
    m_Floats:
    - _AlphaBoost: 2
    - _AlphaDiffuseAttenuation: 0
    - _BumpScale: 1
    - _ColorBoost: 25
    - _ColorLerp: 1
    - _Cutoff: 0.5
    - _DetailNormalMapScale: 1
    - _DistortionPower: 0.2
    - _DistortionUOffset: 0
    - _DistortionUSpeed: 0
    - _DistortionUTiling: 1
    - _DistortionVOffset: 0
    - _DistortionVSpeed: 0
    - _DistortionVTiling: 1
    - _DstBlend: 0
    - _FresnelPower: 1
    - _GlossMapScale: 1
    - _Glossiness: 0.5
    - _GlossyReflections: 1
    - _Mask1AlphaAttenuation: 0
    - _Mask1DiffuseAttenuation: 0
    - _Mask1UOffset: 0
    - _Mask1USpeed: 0
    - _Mask1UTiling: 1
    - _Mask1VOffset: 0
    - _Mask1VSpeed: -1
    - _Mask1VTiling: 0.2
    - _Mask2AlphaAttenuation: 0
    - _Mask2DiffuseAttenuation: 0
    - _Mask2UOffset: 0
    - _Mask2USpeed: 0
    - _Mask2UTiling: 1
    - _Mask2VOffset: 0.26
    - _Mask2VSpeed: -1
    - _Mask2VTiling: 0.2
    - _MasterSpeed: 1.5
    - _Metallic: 0
    - _Mode: 0
    - _OcclusionStrength: 1
    - _Parallax: 0.02
    - _SmoothnessTextureChannel: 0
    - _SpecularHighlights: 1
    - _SrcBlend: 1
    - _UVSec: 0
    - _ZWrite: 1
    - __dirty: 1
    m_Colors:
    - _Color: {r: 1, g: 1, b: 1, a: 0}
    - _EmissionColor: {r: 0, g: 0, b: 0, a: 1}
    - _SecondaryColor: {r: 0.4398174, g: 0, b: 1, a: 0}
